[
    {
        "_id" : "63107827fd5717a5a36790d1",
        "title" : "Thiss is an awesome blog!",
        "content" : "my first blog.",
        "createdOn" : "9/1/2022",
        "author" : "nikho",
        "comments" : [ 
            {
                "id" : "comment1",
                "comment" : "first comment.",
                "author" : "critiquee1"
            }, 
            {
                "id" : "comment2",
                "comment" : "booooo",
                "author" : "usertwo"
            }
        ]
    }

]    